﻿<root dataType="Struct" type="Duality.Resources.Material" id="129723834">
  <assetInfo />
  <info dataType="Struct" type="Duality.Drawing.BatchInfo" id="427169525">
    <parameters dataType="Struct" type="Duality.Drawing.ShaderParameterCollection" id="1100841590" custom="true">
      <body>
        <mainColor dataType="Array" type="System.Single[]" id="2824927200">1, 0, 0, 1</mainColor>
        <mainTex dataType="Struct" type="Duality.ContentRef`1[[Duality.Resources.Texture]]">
          <contentPath dataType="String">Data\Button.Texture.res</contentPath>
        </mainTex>
      </body>
    </parameters>
    <technique dataType="Struct" type="Duality.ContentRef`1[[Duality.Resources.DrawTechnique]]">
      <contentPath dataType="String">Data\Mask.DrawTechnique.res</contentPath>
    </technique>
  </info>
</root>
<!-- XmlFormatterBase Document Separator -->
