﻿<root dataType="Struct" type="Duality.Resources.DrawTechnique" id="129723834">
  <assetInfo />
  <blendType dataType="Enum" type="Duality.Drawing.BlendMode" name="Mask" value="1" />
  <fragmentShader dataType="Struct" type="Duality.ContentRef`1[[Duality.Resources.FragmentShader]]">
    <contentPath dataType="String">Data\Minimal.FragmentShader.res</contentPath>
  </fragmentShader>
  <prefType />
  <vertexShader dataType="Struct" type="Duality.ContentRef`1[[Duality.Resources.VertexShader]]">
    <contentPath dataType="String">Default:VertexShader:Minimal</contentPath>
  </vertexShader>
</root>
<!-- XmlFormatterBase Document Separator -->
